{
  "project_info": {
    "project_number": "254880232957",
    "firebase_url": "https://majestic-lady.firebaseio.com",
    "project_id": "majestic-lady",
    "storage_bucket": "majestic-lady.appspot.com"
  },
  "client": [
    {
      "client_info": {
        "mobilesdk_app_id": "1:254880232957:android:b29de8761c1ebe9b",
        "android_client_info": {
          "package_name": "com.pureweblopment.majesticlady"
        }
      },
      "oauth_client": [
        {
          "client_id": "254880232957-7jnjcbtj409u73nrdqn8ik9h4pe3388o.apps.googleusercontent.com",
          "client_type": 1,
          "android_info": {
            "package_name": "com.pureweblopment.majesticlady",
            "certificate_hash": "6c8f19e6901c297dda5f986a8d8d26d0e4b17116"
          }
        },
        {
          "client_id": "254880232957-t23ra02vpqjn0qdsn952ot8fda4i3fmb.apps.googleusercontent.com",
          "client_type": 3
        }
      ],
      "api_key": [
        {
          "current_key": "AIzaSyD_IpWn6_PJntVc0-ZI3esa7IoAJFBqGCo"
        }
      ],
      "services": {
        "analytics_service": {
          "status": 1
        },
        "appinvite_service": {
          "status": 2,
          "other_platform_oauth_client": [
            {
              "client_id": "254880232957-t23ra02vpqjn0qdsn952ot8fda4i3fmb.apps.googleusercontent.com",
              "client_type": 3
            }
          ]
        },
        "ads_service": {
          "status": 2
        }
      }
    }
  ],
  "configuration_version": "1"
}